<?xml version="1.0" encoding="UTF-8" standalone="no"?>
<svg
   width="1777.9208"
   height="1347.8011"
   viewBox="0 0 1777.9208 1347.8011"
   preserveAspectRatio="xMidYMid"
   version="1.1"
   id="svg6"
   sodipodi:docname="logo.svg"
   inkscape:version="1.2.2 (b0a8486541, 2022-12-01)"
   xmlns:inkscape="http://www.inkscape.org/namespaces/inkscape"
   xmlns:sodipodi="http://sodipodi.sourceforge.net/DTD/sodipodi-0.dtd"
   xmlns="http://www.w3.org/2000/svg"
   xmlns:svg="http://www.w3.org/2000/svg">
  <defs
     id="defs10" />
  <sodipodi:namedview
     id="namedview8"
     pagecolor="#ffffff"
     bordercolor="#000000"
     borderopacity="0.25"
     inkscape:showpageshadow="2"
     inkscape:pageopacity="0.0"
     inkscape:pagecheckerboard="0"
     inkscape:deskcolor="#d1d1d1"
     showgrid="false"
     inkscape:zoom="0.5484375"
     inkscape:cx="653.67521"
     inkscape:cy="651.85185"
     inkscape:window-width="2560"
     inkscape:window-height="1389"
     inkscape:window-x="0"
     inkscape:window-y="27"
     inkscape:window-maximized="1"
     inkscape:current-layer="svg6" />
  <path
     d="m 1095.1189,0.80116976 c -13.7,0.40000004 -25.6,1.00000004 -26.2,1.40000004 -0.8,0.5 -1.2,4.1 -1.2,10.9000002 0,10.6 0,10.5 5.5,18.2 1.1,1.6 2.3,5.9 3,10.4 l 1,7.5 4.7,1.4 c 3.8,1 4.9,1.9 5.5,4 0.3,1.4 0.2,22.9 -0.2,47.7 -2,104.8 -2.3,238.7 -0.7,262 l 1,14 -3.7,3.5 c -2.1,1.9 -7.3,5.4 -11.5,7.7 l -15,8.4 c -8.5,4.8 -15.6,11.2 -15.6,14.3 -0.1,1.1 -0.5,45.7 -1,99 l -1.2,97.2 c -0.8,0.8 -19.7,-4.9 -27.8,-8.3 -4.7,-2 -16.59998,-7.8 -26.49998,-12.9 -17.2,-8.8 -35.3,-16.4 -39.2,-16.4 -2.4,0 -10.7,12.4 -17.2,25.6 -5.3,10.6 -14.1,32.3 -14.1,34.6 0,0.8 1.9,2.3 4.3,3.5 6.1,2.9 10.5,6.9 11.2,10.1 0.7,3.3 -1.3,9.4 -5.1,15.3 -4.9,7.8 -8.5,15.8 -16.4,36.8 -4.2,11.3 -11.1,27.4 -15.3,35.6 -4.1,8.3 -8.1,17 -8.8,19.4 l -1.3,4.4 3.9,3.3 c 6.2,5.2 18.2,10.7 39.3,17.9 10.6,3.6 22.4,8.1 26.2,10 l 6.9,3.5 2,-2.7 c 1.2,-1.4 2.1,-3.2 2.1,-3.9 0,-1.9 4,-4.4 7.1,-4.4 1.5,0 6.9,2.2 12,4.9 14.7,7.6 12.4,9 21.39998,-12.6 9.9,-24 22.1,-49.3 23.8,-49.3 2.1,0 15.8,3.9 23.2,6.7 8.1,3 20.1,8.8 29.8,14.5 l 6.7,3.9 v 44.4 44.5 h 5.5 5.5 l -2.9,2.7 c -4.4,4.1 -4.8,7.3 -1.5,11.2 5,5.9 22.5,13.1 40.1,16.5 8.1,1.5 9.7,1.5 36.3,-0.5 l 13.5,-1 14,-6.6 c 7.7,-3.6 14.8,-7.2 15.8,-8.1 2.6,-2.3 2.1,-4.2 -1.3,-4.9 -1.7,-0.3 -3.3,-1 -3.6,-1.4 -1.2,-2.1 0.9,-4.7 4.6,-5.8 l 4,-1.2 v -7.2 c 0,-4 -0.5,-17.6 -1.1,-30.3 -0.8,-17.2 -0.8,-26.1 0,-34.5 1.4,-13.6 3.2,-21.3 5.2,-21.6 0.8,-0.1 5.8,-0.5 11.2,-0.8 l 9.7,-0.7 -0.2,-24.1 c -0.2,-18.2 0.1,-25.6 1.1,-30 l 1.5,-5.7 c 0.1,-0.1 41.5,-0.5 92.1,-1 102.2,-1 96.9,-1.3 116.8,5.6 57.9,20.1 91.8,50.6 107.2,96.7 9.8,29.2 10.5,67.5 1.9,94.9 -6.8,21.4 -21.1,42.1 -36.9,53.3 -9.2,6.5 -37.1,23.4 -43.4,26.3 -5.8,2.7 -18.4,4.3 -20.1,2.6 -0.5,-0.5 -1.3,-7.1 -1.9,-14.6 -0.7,-10.2 -1.5,-14.9 -3.1,-18.5 l -2.1,-4.8 3,-2.5 c 3.4,-2.8 5.4,-7.3 4.6,-10.1 -0.3,-1 -2,-2.1 -3.8,-2.5 -3.4,-0.8 -492.19998,-0.8 -593.89998,0 -40.5,0.3 -60.4,0.8 -61.8,1.6 -3.8,2 -2.6,5.7 3,9.2 4.2,2.6 5,3.6 4.8,5.7 -0.2,1.9 -1,2.7 -3.4,3.2 -5.5,1.1 -5.4,0.8 -5.4,19.3 v 17.3 l 28.3,0.6 68.2,0.6 59.5,0.7 19.5,0.7 0.3,31.6 0.8,39.40003 0.6,7.7 85.19998,0.1 130.1,0.8 45,0.6 0.7,39 0.2,51.7 -0.6,12.6 -5.2,-1.5 c -8.9,-2.6 -22.7,-9.6 -38.6,-19.8 -13.6,-8.6 -46.2,-25.9 -52.8,-28 -4.4,-1.3 -9,0.5 -20,7.9 -6,4.1 -19.7,12.4 -30.5,18.5 -22.1,12.5 -32.4,18.9 -44.7,28.1 -4.7,3.4 -11.4,7.7 -15,9.4 -6.4,3.1 -6.7,3.1 -20.5,2.9 -7.7,-0.2 -36.59998,0 -64.09998,0.3 l -50.2,0.6 -0.6,2.9 c -0.3,1.5 -0.8,11.1 -1.2,21.3 -0.4,10.2 -1,19 -1.4,19.7 -0.6,0.9 -7.3,0.9 -29.6,-0.1 -29.4,-1.3 -49.7,-0.9 -61.4,1.3 l -6.5,1.2 -0.3,66.3 -0.2,66.2 h 485.09998 485.2 l -0.6,-50.3 -1.4,-66.4 -0.6,-16.1 -13.1,-0.6 c -25.9,-1.1 -61.1,-1.6 -116.5,-1.6 h -56.3 l 0.7,-34.7 c 0.4,-19 1,-36.7 1.4,-39.2 0.7,-5.4 -1,-4.9 27.9,-8.1 31.5,-3.5 42.7,-6 56.7,-12.8 49.9,-24.2 91.9,-76.6 106,-132.00003 4.2,-16.8 5.7,-29.2 5.7,-48.2 0.1,-28.3 -3.9,-49.5 -15.7,-84 -15.5,-44.9 -27.1,-64.7 -68.9,-117.5 -18.7,-23.6 -50.7,-66.8 -106,-143 l -91.1,-122.5 c -12.5,-16.2 -25.8,-34 -29.5,-39.5 -8.4,-12.5 -12.6,-17.7 -15.3,-19.1 -1.4,-0.8 -13.8,-1.2 -39.1,-1.4 l -50.6,-0.8 -13.5,-0.7 -0.5,-11.2 c -0.3,-6.2 -0.9,-11.6 -1.4,-12 -0.4,-0.4 -18.2,-1 -39.6,-1.3 l -39.2,-1 c -0.2,-0.3 -2.5,-3 -5,-6 -2.5,-3 -9.3,-12.7 -15.1,-21.6 -5.8,-8.8 -13.6,-19.9 -17.2,-24.5 -12,-15.1 -10.7,5.3 -10.6,-162.7 l 1.3,-147.4 c 0.7,-0.4 2.9,-0.8 4.8,-0.8 5.3,0 6,-1.3 6,-11.1000002 v -8.6 l -6.7,-0.60000004 c -8.3,-0.8 -95.6,-0.6 -129.9,0.3 z"
     fill="#ffcc00"
     id="path2" />
  <path
     d="M 745.51755,906.22935 308.69088,794.0277 l -0.87901,3.60643 411.99657,214.07427 -24.83033,101.8737 -463.41503,-3.1152 -0.65926,2.7048 439.24396,102.284 -31.86175,130.7221 L 5.6765347e-6,1190.6041 44.386802,1008.4944 480.53586,1005.919 481.41488,1002.3126 94.706726,802.04234 141.73034,609.11435 780.01636,764.68801 Z M 801.84614,675.12499 163.56012,519.55133 198.93771,374.40454 837.22373,529.9782 Z M 928.05136,157.33152 805.3816,155.13021 770.44352,298.47379 880.36849,352.96432 845.21066,497.20951 244.71928,186.57237 288.88632,5.3642805 964.74723,6.776068 Z m -522.74155,-26.17173 -0.87901,3.60642 258.17751,120.23324 26.58813,-109.0855 z"
     id="path4" />
</svg>
